{
    "agsiModel": [
        {
            "modelID": "1fb599ab-c040-408d-aba0-85b18bb506c2",
            "modelName": "Example simple geotechnical design model",
            "modelType": "Geotechnical design model",
            "category": "Analytical",
            "domain": "Geotechnical",
            "usage": "Design for some specified use case",
            "agsiModelElement": [
                {
                    "elementID": "MG",
                    "elementName": "Made Ground",
                    "elementType": "Geotechnical unit",
                    "geometryObject": "agsiGeometryLayer",
                    "agsiGeometry": {
						"topElevation": 22.5,
						"bottomElevation": 19
					}
                },
                {
                    "elementID": "ALV",
                    "elementName": "Alluvium",
                    "elementType": "Geotechnical unit",
                    "geometryObject": "agsiGeometryLayer",
                    "agsiGeometry": {
						"topElevation": 19,
						"bottomElevation": 14.5
					}
                },
                {
                    "elementID": "GC",
                    "elementName": "Gotham Clay",
                    "elementType": "Geotechnical unit",
                    "geometryObject": "agsiGeometryLayer",
                    "agsiGeometry": {
						"topElevation": 14.5,
						"bottomElevation": -20
					}
                }
            ]
        }
    ]
}